<?xml version="1.0" encoding="utf-8"?>
<svg width="216" height="27" viewBox="0 0 216 27" fill="none" xmlns="http://www.w3.org/2000/svg">
<style>
  .secondary {
    fill: var(--theme-color-secondary);
  }
</style>
<g clip-path="url(#clip0)">
<path class="secondary" d="M21.4248 7.5V0.639605C21.4248 0.579237 21.4011 0.521341 21.3589 0.478655C21.3167 0.435968 21.2595 0.411987 21.1999 0.411987H0.233723C0.174067 0.411987 0.116854 0.435968 0.0746707 0.478655C0.0324873 0.521341 0.00878906 0.579237 0.00878906 0.639605V7.46813H0.458658L3.52226 1.52504C3.59523 1.38565 3.70209 1.26738 3.83274 1.18136C3.9634 1.09534 4.11355 1.04441 4.26905 1.03338H6.29345C6.8153 0.999241 7.25842 1.27921 7.26742 1.80728L7.45412 12.1275V14.5243L7.27642 25.063C7.26907 25.2789 7.18607 25.4852 7.04226 25.6449C6.89844 25.8046 6.70319 25.9073 6.4914 25.9347H4.63569V26.6176H16.8586V25.9347H15.0074C14.5328 25.9006 14.1864 25.6684 14.1774 25.1882L14.002 14.5243V12.1343L14.1774 1.8437C14.1774 1.31791 14.6273 1.01745 15.1424 1.04704H17.142C17.2993 1.05573 17.4517 1.10534 17.5845 1.19107C17.7173 1.2768 17.826 1.39575 17.9001 1.53642L20.9817 7.50683L21.4248 7.5Z"/>
<path class="secondary" d="M37.5438 27C35.3349 27 33.3937 26.6517 31.7562 25.9211C30.1886 25.26 28.7744 24.2755 27.6039 23.0303C26.502 21.8032 25.66 20.3609 25.1296 18.7921C24.5635 17.1585 24.2804 15.4382 24.2929 13.7071C24.2862 11.9446 24.5956 10.1955 25.2061 8.54474C25.7879 6.90163 26.7011 5.39892 27.8875 4.13207C29.074 2.86521 30.5079 1.8619 32.0981 1.18587C33.9377 0.38897 35.9231 -0.00509045 37.9239 0.029569C40.1328 0.029569 42.0739 0.375547 43.7474 1.10848C45.3085 1.77779 46.7109 2.77561 47.8615 4.03564C48.9573 5.25261 49.7989 6.68102 50.3358 8.23518C50.8719 9.87534 51.1416 11.5926 51.1343 13.3202C51.1348 15.0795 50.8389 16.8261 50.2593 18.4848C49.6707 20.1057 48.7786 21.5965 47.6321 22.8755C46.4292 24.1671 44.9737 25.1911 43.3583 25.8824C41.5137 26.6453 39.5364 27.0253 37.5438 27ZM37.7687 26.3604C38.6961 26.3552 39.5976 26.0506 40.3419 25.4909C41.1914 24.8108 41.8793 23.9467 42.3551 22.962C42.9569 21.7043 43.3954 20.3731 43.6597 19.0015C43.9711 17.3213 44.1218 15.6146 44.1096 13.9051C44.1044 12.2986 43.9675 10.6952 43.7002 9.11151C43.4698 7.66021 43.0688 6.24197 42.5058 4.88693C42.0281 3.75903 41.3409 2.73441 40.4814 1.86872C40.1197 1.48979 39.6848 1.19019 39.2038 0.988528C38.7229 0.786869 38.206 0.687463 37.6855 0.696489C36.7618 0.698241 35.8666 1.0195 35.1482 1.60696C34.2988 2.30175 33.6114 3.17766 33.135 4.17221C32.5164 5.41116 32.0763 6.73339 31.8282 8.09861C31.4885 9.76273 31.3301 11.4595 31.3558 13.1586C31.3611 14.7772 31.498 16.3927 31.7652 17.9886C31.996 19.445 32.4102 20.8656 32.9978 22.2155C33.457 23.338 34.1278 24.3593 34.9728 25.2223C35.342 25.5893 35.7793 25.8788 36.2595 26.0741C36.7398 26.2694 37.2534 26.3667 37.7709 26.3604H37.7687Z"/>
<path class="secondary" d="M79.9013 25.9279V26.6108H70.6183C70.4906 26.6115 70.3653 26.5755 70.257 26.507C70.1487 26.4385 70.0618 26.3403 70.0065 26.2238L64.5878 15.0569C64.5324 14.9404 64.4456 14.8422 64.3373 14.7737C64.229 14.7052 64.1037 14.6693 63.976 14.67H63.1527C63.0626 14.6699 62.9733 14.6882 62.8902 14.7236C62.8072 14.7591 62.732 14.811 62.6691 14.8764C62.6062 14.9417 62.5568 15.0191 62.524 15.1041C62.4912 15.1891 62.4755 15.2798 62.4779 15.371L62.6466 25.4044C62.6466 25.7618 62.9278 25.9029 63.2809 25.9279H65.3211V26.6108H53.0981V25.9279H55.1405C55.3016 25.906 55.4494 25.826 55.5568 25.7027C55.6643 25.5793 55.7241 25.4209 55.7254 25.2564L55.9053 14.5175V12.1275L55.7344 1.77769C55.7344 1.43854 55.4824 1.04704 55.1518 1.04704H53.0981V0.411988H66.0814C67.3867 0.411631 68.6884 0.553573 69.9637 0.835357C71.0864 1.08957 72.1586 1.53358 73.1353 2.14871C74.002 2.72249 74.7306 3.48549 75.2677 4.38164C75.7867 5.40588 76.0449 6.545 76.019 7.69575C76.0143 8.66515 75.7073 9.60832 75.1417 10.3907C74.4842 11.2779 73.6715 12.0355 72.7439 12.6259C71.6482 13.3101 70.4537 13.8169 69.2034 14.1282C67.8718 14.4742 65.0017 14.7678 65.7192 14.9476L73.0746 17.4742C73.2296 17.5291 73.3604 17.638 73.4435 17.7815L78.0164 25.5865C78.0695 25.681 78.1442 25.7612 78.2342 25.8206C78.3242 25.88 78.4269 25.9168 78.5337 25.9279H79.9013ZM64.6733 14.2967C65.2927 14.3085 65.9017 14.1342 66.4233 13.7959C66.9775 13.4593 67.4472 12.9973 67.7954 12.4461C68.2063 11.8105 68.5025 11.1061 68.6703 10.3657C68.8754 9.49098 68.9774 8.59475 68.974 7.69575C68.9771 6.89138 68.8881 6.08936 68.7086 5.30577C68.5267 4.53357 68.2318 3.79322 67.8336 3.10926C67.4545 2.47361 66.9644 1.91292 66.3873 1.45448C65.8159 1.03111 65.1321 1.04249 64.3629 1.04249H62.6534L62.4644 12.1275V13.5933C62.4644 13.7744 62.5355 13.9481 62.6621 14.0762C62.7886 14.2042 62.9602 14.2762 63.1392 14.2762L64.6733 14.2967Z"/>
<path class="secondary" d="M95.1065 25.9279V26.6108H82.1323V25.9279H84.186C84.347 25.906 84.4948 25.826 84.6023 25.7027C84.7097 25.5793 84.7696 25.4209 84.7708 25.2564L84.9508 14.5175V12.1275L84.7618 1.77769C84.7602 1.60696 84.7016 1.4418 84.5954 1.30912C84.4892 1.17644 84.3417 1.08406 84.177 1.04704H82.1323V0.411988H95.4957C96.8018 0.411626 98.1042 0.553567 99.3803 0.835357C100.506 1.08601 101.578 1.5435 102.541 2.18513C103.424 2.83575 104.153 3.67798 104.673 4.65023C105.204 5.78023 105.465 7.02071 105.436 8.27162C105.436 9.85129 105.13 11.1237 104.52 12.0478C103.934 12.9777 103.103 13.7247 102.122 14.2056C101.046 14.7382 99.8857 15.0771 98.6943 15.2071C97.3675 15.3623 96.0328 15.4383 94.6972 15.4347H92.2229C92.1327 15.4347 92.0435 15.453 91.9604 15.4884C91.8774 15.5239 91.8022 15.5758 91.7393 15.6411C91.6764 15.7065 91.627 15.7839 91.5942 15.8689C91.5614 15.9539 91.5457 16.0446 91.5481 16.1358L91.6808 25.3885C91.6808 25.7504 91.9665 25.9029 92.3241 25.9234L95.1065 25.9279ZM97.1625 13.0357C98.0015 11.9181 98.4198 10.5091 98.3816 8.2739C98.383 7.40646 98.294 6.54129 98.1162 5.69272C97.9802 4.94358 97.7321 4.2198 97.3806 3.54628C96.9647 2.84691 96.4266 2.2299 95.7926 1.72534C95.2169 1.26625 94.501 1.02476 93.7682 1.04249H92.3444C92.1654 1.04249 91.9937 1.11443 91.8672 1.24249C91.7406 1.37055 91.6695 1.54424 91.6695 1.72534L91.4896 11.8452V14.085C91.4896 14.2661 91.5607 14.4398 91.6872 14.5678C91.8138 14.6959 91.9854 14.7678 92.1644 14.7678H93.9931C95.2595 14.7701 96.3257 14.1897 97.1625 13.0357Z"/>
<path class="secondary" d="M128.213 19.4863L124.258 25.7276C124.137 25.9211 123.928 25.9211 123.703 25.9279H117.274C117.187 25.9374 117.099 25.9286 117.016 25.9022C116.933 25.8758 116.855 25.8323 116.789 25.7744C116.723 25.7166 116.67 25.6456 116.632 25.5659C116.594 25.4861 116.573 25.3994 116.57 25.3111L116.421 14.2557C116.421 13.8551 116.748 13.6639 117.144 13.6866H119.348C119.453 13.693 119.555 13.7236 119.646 13.7761C119.737 13.8286 119.815 13.9015 119.874 13.9894L122.731 18.2527H123.044V8.42868H122.731L119.874 12.6578C119.816 12.7451 119.738 12.8175 119.647 12.8692C119.556 12.921 119.454 12.9507 119.35 12.956H117.144C116.748 12.9788 116.417 12.7876 116.421 12.3869L116.59 1.5C116.59 1.11533 116.912 1.03111 117.292 1.04476H124.173C124.288 1.03637 124.404 1.06039 124.507 1.1142C124.611 1.168 124.697 1.2495 124.758 1.34977L127.997 7.54325H128.469V0.411987H107.044V1.04021H109.098C109.262 1.07723 109.41 1.16961 109.516 1.30229C109.622 1.43497 109.681 1.60013 109.682 1.77086L109.862 12.1252V14.5243L109.682 25.2633C109.681 25.4277 109.621 25.5861 109.514 25.7095C109.406 25.8328 109.259 25.9128 109.098 25.9347H107.044V26.6176H128.669V19.4863H128.213Z"/>
<path class="secondary" d="M144.473 26.613H131.375V25.9302H133.418C133.579 25.9083 133.727 25.8283 133.834 25.7049C133.941 25.5816 134.001 25.4231 134.002 25.2587L134.185 14.5197V12.1297L134.014 1.77769C134.012 1.60696 133.953 1.4418 133.847 1.30912C133.741 1.17644 133.594 1.08406 133.429 1.04704H131.375V0.411987H144.853C147.062 0.411987 149.004 0.758725 150.679 1.4522C152.257 2.0818 153.694 3.0253 154.906 4.22686C156.012 5.41297 156.867 6.81582 157.418 8.34901C157.985 9.94232 158.268 11.6246 158.255 13.3179C158.262 15.056 157.952 16.7805 157.342 18.4052C156.735 19.9881 155.816 21.43 154.642 22.6434C153.395 23.8822 151.921 24.864 150.303 25.5341C148.585 26.2671 146.644 26.613 144.473 26.613ZM140.742 12.1275V14.5243L140.921 25.5546C140.921 25.9325 141.23 25.9347 141.596 25.9347H144.313C145.341 25.9347 146.255 25.9666 147.132 25.3862C148.035 24.7367 148.788 23.8964 149.339 22.9234C150.04 21.7301 150.542 20.4282 150.825 19.0698C151.194 17.3747 151.373 15.643 151.358 13.9074C151.351 12.3186 151.211 10.7332 150.938 9.16844C150.7 7.71431 150.267 6.29986 149.651 4.96434C149.105 3.80436 148.341 2.763 147.402 1.89833C146.489 1.12898 145.422 1.04476 144.203 1.04476H141.603C141.23 1.04476 140.928 1.04476 140.928 1.42033L140.742 12.1275Z"/>
<path class="secondary" d="M174.758 26.9704C172.551 26.9704 170.608 26.6222 168.973 25.8915C167.406 25.2296 165.992 24.2452 164.821 23.0008C163.719 21.7736 162.877 20.3313 162.346 18.7625C161.779 17.1291 161.496 15.4087 161.509 13.6775C161.506 11.9143 161.82 10.1652 162.434 8.51517C163.016 6.87206 163.929 5.36935 165.115 4.1025C166.302 2.83564 167.736 1.83233 169.326 1.15629C171.165 0.359647 173.149 -0.0344078 175.149 -1.32923e-06C177.358 -1.32923e-06 179.302 0.345977 180.975 1.07891C182.506 1.73218 183.884 2.70441 185.019 3.9323C186.155 5.1602 187.021 6.61622 187.564 8.20561C188.1 9.84577 188.369 11.5631 188.362 13.2906C188.363 15.0499 188.067 16.7965 187.487 18.4552C186.898 20.0761 186.006 21.5669 184.86 22.846C183.657 24.1376 182.202 25.1616 180.586 25.8528C178.737 26.6174 176.755 26.9975 174.758 26.9704ZM174.983 26.3308C175.91 26.3256 176.812 26.021 177.556 25.4613C178.41 24.7825 179.102 23.9182 179.581 22.9325C180.181 21.6743 180.62 20.3432 180.885 18.9719C181.197 17.2917 181.347 15.585 181.335 13.8756C181.33 12.269 181.193 10.6656 180.926 9.08194C180.694 7.63014 180.293 6.21127 179.731 4.85508C179.252 3.72794 178.565 2.70357 177.707 1.83687C177.345 1.4584 176.909 1.15927 176.428 0.958022C175.947 0.756773 175.43 0.657693 174.909 0.666918C173.986 0.669189 173.092 0.990417 172.374 1.57739C171.52 2.27097 170.829 3.14697 170.349 4.14264C169.733 5.38213 169.293 6.70421 169.045 8.06904C168.701 9.73199 168.539 11.428 168.561 13.1267C168.566 14.7454 168.703 16.3608 168.971 17.9568C169.202 19.4128 169.615 20.8331 170.201 22.1836C170.66 23.3103 171.331 24.3356 172.178 25.2018C172.549 25.5686 172.989 25.8572 173.471 26.051C173.953 26.2447 174.469 26.3399 174.988 26.3308H174.983Z"/>
<path class="secondary" d="M208.557 13.484C208.557 13.9939 208.415 13.9893 207.911 14.2966C207.886 14.3126 204.564 16.245 201.838 21.4142C201.746 21.5886 201.616 21.7393 201.458 21.8547C201.299 21.9701 201.117 22.0472 200.924 22.08C200.731 22.1127 200.534 22.1003 200.347 22.0437C200.16 21.9871 199.988 21.8878 199.845 21.7534C199.602 21.5135 199.444 21.1996 199.395 20.8599C199.346 20.5202 199.408 20.1735 199.573 19.8733C201.348 16.4749 204.737 14.7519 206.31 13.6138C206.33 13.5988 206.347 13.5791 206.358 13.5564C206.37 13.5336 206.376 13.5084 206.376 13.4829C206.376 13.4574 206.37 13.4322 206.358 13.4094C206.347 13.3867 206.33 13.367 206.31 13.352C204.735 12.2139 201.361 10.4931 199.582 7.09481C199.417 6.79457 199.355 6.44792 199.404 6.1082C199.453 5.76849 199.611 5.45455 199.854 5.21469C199.997 5.08032 200.169 4.98099 200.356 4.92437C200.543 4.86775 200.74 4.85534 200.933 4.88811C201.126 4.92088 201.308 4.99794 201.467 5.11336C201.625 5.22878 201.755 5.37948 201.847 5.55384C204.564 10.723 207.889 12.6532 207.92 12.6737C208.388 12.9947 208.557 12.981 208.557 13.484Z" fill="#FFCE00"/>
<path d="M216 13.4841C216 13.9939 215.856 13.9894 215.352 14.2967C215.33 14.3126 212.005 16.2451 209.279 21.4143C209.187 21.5886 209.057 21.7393 208.898 21.8548C208.74 21.9702 208.557 22.0472 208.365 22.08C208.172 22.1128 207.975 22.1004 207.788 22.0438C207.601 21.9871 207.429 21.8878 207.286 21.7534C207.043 21.5136 206.885 21.1996 206.836 20.8599C206.787 20.5202 206.849 20.1735 207.014 19.8733C208.782 16.475 212.172 14.7587 213.744 13.6161C213.764 13.6011 213.781 13.5814 213.792 13.5587C213.804 13.5359 213.81 13.5108 213.81 13.4852C213.81 13.4597 213.804 13.4345 213.792 13.4117C213.781 13.389 213.764 13.3693 213.744 13.3543C212.169 12.2163 208.782 10.4955 207.014 7.09713C206.849 6.79689 206.787 6.45024 206.836 6.11052C206.885 5.77081 207.043 5.45687 207.286 5.21701C207.429 5.08264 207.601 4.98331 207.788 4.92669C207.975 4.87007 208.172 4.85766 208.365 4.89043C208.557 4.9232 208.74 5.00026 208.898 5.11568C209.057 5.2311 209.187 5.3818 209.279 5.55616C211.996 10.7254 215.321 12.6556 215.352 12.676C215.829 12.9947 216 12.981 216 13.4841Z" fill="#FFCE00"/>
</g>
<defs>
<clipPath id="clip0">
<rect width="216" height="27" fill="white"/>
</clipPath>
</defs>
</svg>
